[gd_scene load_steps=3 format=2]

[ext_resource path="res://assets/ui/scorefont.tres" type="DynamicFont" id=1]
[ext_resource path="res://src/ui/score.gd" type="Script" id=2]

[node name="Score" type="Node2D"]
script = ExtResource( 2 )

[node name="Ones" type="Label" parent="."]
margin_top = 32.0
margin_right = 32.0
margin_bottom = 64.0
custom_fonts/font = ExtResource( 1 )
text = "0"
align = 1
valign = 2
__meta__ = {
"_edit_use_anchors_": false
}

[node name="Tens" type="Label" parent="."]
margin_right = 32.0
margin_bottom = 32.0
custom_fonts/font = ExtResource( 1 )
text = "0"
align = 1
valign = 2
__meta__ = {
"_edit_use_anchors_": false
}
