[gd_scene load_steps=5 format=2]

[ext_resource path="res://assets/tiles/conveyer.png" type="Texture" id=1]
[ext_resource path="res://src/conveyer.gd" type="Script" id=2]
[ext_resource path="res://src/conveyer_anim.gd" type="Script" id=3]

[sub_resource type="RectangleShape2D" id=1]
extents = Vector2( 15, 15 )

[node name="Node2D" type="Area2D"]
z_index = -1
script = ExtResource( 2 )

[node name="Sprite" type="Sprite" parent="."]
texture = ExtResource( 1 )
region_enabled = true
region_rect = Rect2( 0, 0, 32, 32 )
script = ExtResource( 3 )

[node name="CollisionShape2D" type="CollisionShape2D" parent="."]
shape = SubResource( 1 )
