[gd_scene load_steps=5 format=2]

[ext_resource path="res://assets/sounds/chopping.wav" type="AudioStream" id=1]
[ext_resource path="res://src/cuttingboard.gd" type="Script" id=2]
[ext_resource path="res://src/ui/progressbar.tscn" type="PackedScene" id=3]

[sub_resource type="RectangleShape2D" id=1]
extents = Vector2( 15, 15 )

[node name="CuttingBoard" type="Area2D"]
script = ExtResource( 2 )

[node name="CollisionShape2D" type="CollisionShape2D" parent="."]
shape = SubResource( 1 )

[node name="AudioStreamPlayer2D" type="AudioStreamPlayer" parent="."]
stream = ExtResource( 1 )

[node name="ProgressBar" parent="." instance=ExtResource( 3 )]
